Intro. to Multivariate Methods
…
```r
con <- url("http://www.tau.ac.il/~saharon/StatsLearn2020/train_ratings_all.dat")
netflix <- as_tibble(
  read.table(con, colClasses = c(rep("integer", 14), rep("NULL", 99 - 14)))
)

con <- url("http://www.tau.ac.il/~saharon/StatsLearn2020/movie_titles.txt")
titles <- read.table(con, sep = ",", nrows = 14)
colnames(netflix) <- janitor::make_clean_names(str_sub(titles[,2], 1, 15))

netflix
```

```
## # A tibble: 10,000 x 14
##    independence_da the_patriot the_day_after_t pirates_of_the pretty_woman
##              <int>       <int>           <int>          <int>        <int>
##  1               2           4               4              4            5
##  2               4           5               3              3            4
##  3               5           5               5              5            5
##  4               3           3               3              4            4
##  5               4           4               4              5            4
##  6               4           3               3              4            4
##  7               5           4               5              5            5
##  8               3           5               3              4            4
##  9               5           5               5              5            5
## 10               4           4               4              4            5
## # ... with 9,990 more rows, and 9 more variables: forrest_gump <int>,
## #   the_green_mile <int>, con_air <int>, twister <int>, sweet_home_alab <int>,
## #   pearl_harbor <int>, armageddon <int>, the_rock <int>, what_women_want <int>
```
…
