Modeling in the Tidyverse
…
```
## • Centering and scaling for: X1, X2, X3, X4, X5, X6, X7, X8, X9, ... | Trained
```

---

At this point our `recipe` has all necessary `sd` and `mean`s for numeric variables.

```r
blogs_rec$var_info
```

```
## # A tibble: 281 × 4
##    variable type      role      source  
##    <chr>    <list>    <chr>     <chr>   
##  1 X1       <chr [2]> predictor original
##  2 X2       <chr [2]> predictor original
##  3 X3       <chr [2]> predictor original
##  4 X4       <chr [2]> predictor original
##  5 X5       <chr [2]> predictor original
##  6 X6       <chr [2]> predictor original
##  7 X7       <chr [2]> predictor original
##  8 X8       <chr [2]> predictor original
##  9 X9       <chr [2]> predictor original
## 10 X10      <chr [2]> predictor original
## # … with 271 more rows
```
…
---

Notice how easy it is to get the model's results in a tidy way using the `tidy()` function:

```r
tidy(mod_ridge)
```

```
## # A tibble: 281 × 3
##    term          estimate penalty
##    <chr>            <dbl>   <dbl>
##  1 (Intercept)  0.686       0.001
##  2 X1           0.00118     0.001
##  3 X2           0.00135     0.001
##  4 X3           0.000687    0.001
##  5 X4           0.000333    0.001
##  6 X5           0.0000880   0.001
##  7 X6           0.00209     0.001
##  8 X7          -0.00115     0.001
##  9 X8           0.277       0.001
## 10 X9          -0.000139    0.001
## # … with 271 more rows
```
…
```r
diff_null_perm <- blogs_fb %>%
  specify(hand ~ sunday, success = "left") %>%
  hypothesize(null = "independence") %>%
  generate(reps = 200, type = "permute") %>%
  calculate(stat = "diff in props", order = c("NS", "S"))

diff_null_perm
```

```
## Response: hand (factor)
## Explanatory: sunday (factor)
## Null Hypothesis: independence
## # A tibble: 200 × 2
##    replicate       stat
##        <int>      <dbl>
##  1         1 -0.00451  
##  2         2 -0.00569  
##  3         3 -0.00498  
##  4         4  0.00751  
##  5         5  0.00185  
##  6         6 -0.0000328
##  7         7  0.00963  
##  8         8 -0.00427  
##  9         9  0.000203 
## 10        10 -0.00592  
## # … with 190 more rows
```
…
```r
t_null_perm <- blogs_fb %>%
  specify(fb ~ sunday) %>%
  hypothesize(null = "independence") %>%
  generate(reps = 100, type = "permute") %>%
  calculate(stat = "t", order = c("NS", "S"))

t_null_perm
```

```
## Response: fb (numeric)
## Explanatory: sunday (factor)
## Null Hypothesis: independence
## # A tibble: 100 × 2
##    replicate   stat
##        <int>  <dbl>
##  1         1  1.25 
##  2         2 -0.838
##  3         3  1.01 
##  4         4 -0.435
##  5         5  0.895
##  6         6 -0.293
##  7         7  0.241
##  8         8 -0.356
##  9         9  1.50 
## 10        10  0.295
## # … with 90 more rows
```
…
