The Tidyverse
…
<br>

<img src="images/tidy_data.png" style="width: 90%" />

---

### Which one of these datasets is tidy? (I)

```r
table1
```

```
## # A tibble: 315 × 4
##    religion      yob n_straight n_total
##    <chr>       <dbl>      <dbl>   <dbl>
##  1 atheist      1950         26      29
##  2 buddhist     1950          6       6
##  3 christian    1950         28      32
##  4 hindu        1950          0       0
##  5 jewish       1950         21      24
##  6 muslim       1950          0       0
##  7 unspecified  1950         71      76
##  8 atheist      1951         31      33
##  9 buddhist     1951         11      11
## 10 christian    1951         23      24
## # … with 305 more rows
```

---

### Which one of these datasets is tidy? (II)

```r
table2
```

```
## # A tibble: 630 × 4
##    religion    yob type         n
##    <chr>     <dbl> <chr>    <dbl>
##  1 atheist    1950 straight    26
##  2 atheist    1950 total       29
##  3 buddhist   1950 straight     6
##  4 buddhist   1950 total        6
##  5 christian  1950 straight    28
##  6 christian  1950 total       32
##  7 hindu      1950 straight     0
##  8 hindu      1950 total        0
##  9 jewish     1950 straight    21
## 10 jewish     1950 total       24
## # … with 620 more rows
```

---

### Which one of these datasets is tidy? (III)

```r
table3
```

```
## # A tibble: 315 × 3
##    religion      yob pct_straight
##    <chr>       <dbl> <chr>       
##  1 atheist      1950 26/29       
##  2 buddhist     1950 6/6         
##  3 christian    1950 28/32       
##  4 hindu        1950 0/0         
##  5 jewish       1950 21/24       
##  6 muslim       1950 0/0         
##  7 unspecified  1950 71/76       
##  8 atheist      1951 31/33       
##  9 buddhist     1951 11/11       
## 10 christian    1951 23/24       
## # … with 305 more rows
```
…
<br>

> It allows R’s vectorised nature to shine. (Hadley Wickham)

---

### A Tidy dataset will be much easier to transform

```r
table1$pct_straight = table1$n_straight / table1$n_total
table1
```

```
## # A tibble: 315 × 5
##    religion      yob n_straight n_total pct_straight
##    <chr>       <dbl>      <dbl>   <dbl>        <dbl>
##  1 atheist      1950         26      29        0.897
##  2 buddhist     1950          6       6        1    
##  3 christian    1950         28      32        0.875
##  4 hindu        1950          0       0      NaN    
##  5 jewish       1950         21      24        0.875
##  6 muslim       1950          0       0      NaN    
##  7 unspecified  1950         71      76        0.934
##  8 atheist      1951         31      33        0.939
##  9 buddhist     1951         11      11        1    
## 10 christian    1951         23      24        0.958
## # … with 305 more rows
```
…
---

### The `tibble`: the `data.frame` re-imagined

- Prints nicer:

```r
tib1 <- tibble(day = lubridate::today() + runif(1e3) * 30,
               type = sample(letters, 1e3, replace = TRUE),
               quantity = sample(seq(0, 100, 10), 1e3, replace = TRUE))
tib1
```

```
## # A tibble: 1,000 × 3
##    day        type  quantity
##    <date>     <chr>    <dbl>
##  1 2023-01-19 h           70
##  2 2023-01-07 f           80
##  3 2023-01-19 y           10
##  4 2023-01-10 q           20
##  5 2023-01-03 u           20
##  6 2022-12-29 z           80
##  7 2022-12-27 q           80
##  8 2023-01-10 w           10
##  9 2022-12-26 m            0
## 10 2023-01-23 v           30
## # … with 990 more rows
```
…
