Time Series Intro
…
Here, as date is the only Date column, tsibble gets this.

[1D] is the tsibble’s interval.

Grouping variable(s) are specified with key:

tsibble(
  qtr = rep(yearquarter("2010 Q1") + 0:9, 3),
  group = rep(c("x", "y", "z"), each = 10),
  value = rnorm(30),
  key = group
)

# A tsibble: 30 x 3 [1Q]
# Key:       group [3]
       qtr group   value
     <qtr> <chr>   <dbl>
 1 2010 Q1 x     -0.0258
 2 2010 Q2 x     -0.272 
 3 2010 Q3 x     -0.500 
 4 2010 Q4 x      0.795 
 5 2011 Q1 x     -0.594 
 6 2011 Q2 x     -0.608 
 7 2011 Q3 x      0.537 
 8 2011 Q4 x     -0.442 
 9 2012 Q1 x      0.493 
10 2012 Q2 x     -0.693 
# … with 20 more rows

Here there are 54 TS combinations:

aus_livestock

# A tsibble: 29,364 x 4 [1M]
# Key:       Animal, State [54]
      Month Animal                     State                        Count
      <mth> <fct>                      <fct>                        <dbl>
 1 1976 Jul Bulls, bullocks and steers Australian Capital Territory  2300
 2 1976 Aug Bulls, bullocks and steers Australian Capital Territory  2100
 3 1976 Sep Bulls, bullocks and steers Australian Capital Territory  2100
 4 1976 Oct Bulls, bullocks and steers Australian Capital Territory  1900
 5 1976 Nov Bulls, bullocks and steers Australian Capital Territory  2100
 6 1976 Dec Bulls, bullocks and steers Australian Capital Territory  1800
 7 1977 Jan Bulls, bullocks and steers Australian Capital Territory  1800
 8 1977 Feb Bulls, bullocks and steers Australian Capital Territory  1900
 9 1977 Mar Bulls, bullocks and steers Australian Capital Territory  2700
10 1977 Apr Bulls, bullocks and steers Australian Capital Territory  2300
# … with 29,354 more rows

Wrangling similar to the Tidyverse, only group_by() + summarise() on a time index would be index_by() + summarise():

aus_calves <- aus_livestock |>
  filter(Animal == "Calves") |>
  index_by() |>
  summarise(count = sum(Count), log_count = log(count))

aus_calves

# A tsibble: 558 x 3 [1M]
      Month  count log_count
      <mth>  <dbl>     <dbl>
 1 1972 Jul 196200      12.2
 2 1972 Aug 250600      12.4
 3 1972 Sep 170100      12.0
 4 1972 Oct 128500      11.8
 5 1972 Nov 103400      11.5
 6 1972 Dec  69200      11.1
 7 1973 Jan  87800      11.4
 8 1973 Feb  71300      11.2
 9 1973 Mar  78200      11.3
10 1973 Apr  62600      11.0
# … with 548 more rows
…
Some useful features for multiple series:

aus_livestock |>
  features(log(Count), quantile)

# A tibble: 54 × 7
   Animal                     State            `0%`   `25%`   `50%` `75%` `100%`
   <fct>                      <fct>           <dbl>   <dbl>   <dbl> <dbl>  <dbl>
 1 Bulls, bullocks and steers Australian C… -Inf    -Inf    -Inf     7.60   8.32
 2 Bulls, bullocks and steers New South Wa…   10.8    11.1    11.3  11.4   11.9 
 3 Bulls, bullocks and steers Northern Ter… -Inf    -Inf       4.61  7.85   9.74
 4 Bulls, bullocks and steers Queensland      10.5    11.7    11.9  12.1   12.4 
 5 Bulls, bullocks and steers South Austra…    8.59    9.59    9.80  9.96  10.4 
 6 Bulls, bullocks and steers Tasmania         8.16    8.75    8.95  9.15   9.67
 7 Bulls, bullocks and steers Victoria        10.4    10.8    11.0  11.1   11.8 
 8 Bulls, bullocks and steers Western Aust…    8.97    9.62    9.83 10.1   10.7 
 9 Calves                     Australian C… -Inf    -Inf    -Inf     4.61   7.17
10 Calves                     New South Wa…    7.60    9.62    9.83 10.0   11.0 
# … with 44 more rows
…
