Topics in Classification
…
mod_fit <- mod_spec %>%
  fit(playlist_genre ~ ., data = sptfy_tr_small %>%
        select(-track_id, -track_name, -track_artist))

mod_pred <- mod_fit %>%
  predict(new_data = sptfy_tr_large, type = "prob")

mod_pred
```

```
## # A tibble: 18,641 x 6
##    .pred_edm .pred_latin .pred_pop .pred_rap .pred_rnb .pred_rock
##        <dbl>       <dbl>     <dbl>     <dbl>     <dbl>      <dbl>
##  1   0.00584     0.0700    0.455     0.0115    0.320      0.137  
##  2   0.00937     0.00305   0.00108   0.00127   0.00240    0.983  
##  3   0.879       0.0547    0.0530    0.00402   0.00224    0.00673
##  4   0.785       0.0578    0.0530    0.0146    0.0843     0.00502
##  5   0.0553      0.198     0.200     0.205     0.186      0.155  
##  6   0.00147     0.00447   0.0235    0.00335   0.947      0.0205 
##  7   0.383       0.465     0.0421    0.0471    0.0517     0.0113 
##  8   0.00190     0.185     0.00992   0.762     0.0281     0.0135 
##  9   0.590       0.0594    0.0311    0.0977    0.213      0.00880
## 10   0.0306      0.616     0.142     0.108     0.0985     0.00516
## # ... with 18,631 more rows
```
…
---

```r
mod_unc <- mod_pred %>% pmap_dfr(uncertainty)

mod_unc
```

```
## # A tibble: 18,641 x 3
##       lc  margin entropy
##    <dbl>   <dbl>   <dbl>
##  1 0.455 0.135    -1.26 
##  2 0.983 0.973    -0.109
##  3 0.879 0.824    -0.497
##  4 0.785 0.701    -0.807
##  5 0.205 0.00491  -1.73 
##  6 0.947 0.923    -0.272
##  7 0.465 0.0814   -1.20 
##  8 0.762 0.577    -0.736
##  9 0.590 0.377    -1.19 
## 10 0.616 0.474    -1.18 
## # ... with 18,631 more rows
```
…
  mod_fit %>%
    predict(new_data = te)
}
mod_pred <- map_dfc(1:6, fit_sub_model,
                    tr = sptfy_tr_small, te = sptfy_tr_large)
mod_pred
```

```
## # A tibble: 18,641 x 6
##    .pred_class...1 .pred_class...2 .pred_class...3 .pred_class...4
##    <fct>           <fct>           <fct>           <fct>          
##  1 latin           rock            rock            rock           
##  2 rock            rock            rnb             latin          
##  3 pop             rock            rnb             rock           
##  4 pop             rnb             edm             rock           
##  5 rap             latin           rap             pop            
##  6 rock            pop             rock            rnb            
##  7 latin           rnb             latin           rap            
##  8 rock            rock            rap             latin          
##  9 pop             latin           rock            pop            
## 10 rnb             latin           pop             pop            
## # ... with 18,631 more rows, and 2 more variables: .pred_class...5 <fct>,
## #   .pred_class...6 <fct>
```
…
sptfy_tr_large_with_qbc <- sptfy_tr_large %>%
  bind_cols(mod_qbc) %>%
  select(track_name, track_artist, playlist_genre,
         starts_with(".pred"), vote_entropy)

sptfy_tr_large_with_qbc %>%
  slice_min(vote_entropy, n = 10) %>%
  arrange(vote_entropy) %>%
  select(starts_with(".pred"))
```

```
## # A tibble: 256 x 6
##    .pred_class...17 .pred_class...18 .pred_class...19 .pred_class...20
##    <fct>            <fct>            <fct>            <fct>           
##  1 rock             rap              rnb              edm             
##  2 latin            rap              edm              pop             
##  3 pop              rap              rnb              edm             
##  4 rnb              edm              rock             rap             
##  5 edm              rap              latin            pop             
##  6 edm              latin            rap              rnb             
##  7 rap              pop              rock             edm             
##  8 pop              edm              rnb              rock            
##  9 rap              edm              rnb              latin           
## 10 rock             pop              edm              rap             
## # ... with 246 more rows, and 2 more variables: .pred_class...21 <fct>,
## #   .pred_class...22 <fct>
```
…
