Intro to Web Scraping
…
---

```r
extract_multiple_pages_single_topic("sports")
```

```
## # A tibble: 50 × 4
##    level    question                                                answer topic
##    <chr>    <chr>                                                   <chr>  <chr>
##  1 VeryHard "In 1948, which NBA basketball team did the Harlem Glo… Minne… spor…
##  2 Medium   "The Jacksonville Jaguars and Carolina Panthers entere… 1995   spor…
##  3 Hard     "An automatic progression by a player to the next stag… Bye    spor…
##  4 VeryHard "In 2016, Giants' wide receiver Odell Beckham, Jr. app… Code … spor…
##  5 Hard     "Which NBA player broke the record for most points sco… Jerem… spor…
##  6 Medium   "Before relocating to Foxborough, Massachusetts, what … Boston spor…
##  7 Easy     "What is the term for the historic jerseys today worn … Throw… spor…
##  8 Medium   "Who served as the starting center of the Golden State… Andre… spor…
##  9 Easy     "In what year was the 4 minute mile achieved?"          1954 … spor…
## 10 Hard     "Who was the first tennis player to complete a \"Grand… Don B… spor…
## # … with 40 more rows
```
…
